Winter 2024 NDVI
…
plot_number_to_plot_boundary <- read_csv("data/plot_number_to_plot_boundary.csv")

Import phenotype data

Cornell_WinterOatPeaIntercrop_2024_Ithaca is the trial name
and phenotype data downloaded from T3/Oat with no changes made.
Cornell_WinterOatPeaIntercrop_2024_Ithaca_plot_meta contains
plot meta data not available on T3/Oat. Along with T3/Oat unique plot
id’s for merging. It is mostly used for inter-crop designations.

Cornell_WinterOatPeaIntercrop_2024_Ithaca <- read_csv("data/Cornell_WinterOatPeaIntercrop_2024_Ithaca.csv")

Cornell_WinterOatPeaIntercrop_2024_Ithaca_plot_meta <- read_excel("data/Cornell_WinterOatPeaIntercrop_2024_Ithaca_plot_meta.xlsx")

# A tibble: 1,512 × 60
   studyYear programDbId programName      programDescription studyDbId studyName
       <dbl>       <dbl> <chr>            <chr>                  <dbl> <chr>    
 1      2024        5055 Intercropping C… Oat breeding prog…      6565 Cornell_…
 2      2024        5055 Intercropping C… Oat breeding prog…      6565 Cornell_…
 3      2024        5055 Intercropping C… Oat breeding prog…      6565 Cornell_…
 4      2024        5055 Intercropping C… Oat breeding prog…      6565 Cornell_…
 5      2024        5055 Intercropping C… Oat breeding prog…      6565 Cornell_…
 6      2024        5055 Intercropping C… Oat breeding prog…      6565 Cornell_…
 7      2024        5055 Intercropping C… Oat breeding prog…      6565 Cornell_…
 8      2024        5055 Intercropping C… Oat breeding prog…      6565 Cornell_…
 9      2024        5055 Intercropping C… Oat breeding prog…      6565 Cornell_…
10      2024        5055 Intercropping C… Oat breeding prog…      6565 Cornell_…
# ℹ 1,502 more rows
# ℹ 54 more variables: studyDescription <chr>, studyDesign <chr>,
#   plotWidth <dbl>, plotLength <chr>, fieldSize <dbl>,
#   fieldTrialIsPlannedToBeGenotyped <lgl>, fieldTrialIsPlannedToCross <lgl>,
#   plantingDate <chr>, harvestDate <chr>, locationDbId <dbl>,
#   locationName <chr>, germplasmDbId <dbl>, germplasmName <chr>,
#   germplasmSynonyms <chr>, germplasmEntryNumber <lgl>, …
…
  filter(observationLevel == "plot") %>% 
  filter(source != "Barley") %>% 
  filter(source != "Martens") 

plot_data

# A tibble: 350 × 13
# Rowwise: 
   observationLevel observationUnitDbId inter_crop source   replicate plotNumber
   <chr>                          <dbl> <chr>      <chr>        <dbl>      <dbl>
 1 plot                          703914 oat        Noble            2          1
 2 plot                          703844 oat        UON              2         10
 3 plot                          703704 oat        NCSU-ALT         4        100
 4 plot                          703771 oat        UON              4        101
 5 plot                          703852 oat-pea    UON              4        102
 6 plot                          703755 oat-pea    UON              4        105
 7 plot                          703863 oat        UON              4        106
 8 plot                          703931 pea        Pea              4        107
 9 plot                          703943 pea        Pea              4        108
10 plot                          703750 oat-pea    Noble            4        109
# ℹ 340 more rows
# ℹ 7 more variables: germplasmName <chr>, oat_yield <dbl>, pea_yield <dbl>,
#   total_yield <dbl>, `Lodging severity - 0-9 Rating|CO_350:0005007` <dbl>,
#   `Freeze damage severity - 0-9 Rating|CO_350:0005001` <dbl>,
#   `Winter survival - percent|CO_350:0000170` <dbl>
…
join the NDVI data with T3/data

calculate cumulative NDVI cNDVI

ndvi_s2 <- ndvi %>% 
  filter(gcol == 2) #for yield, NDVI analysis I'm only using NDVI values from subplot 2 because they represent the actual grain harvested area, and they were never biomass sampled which would be problematic for the cNDVI

cNDVI_plot_data <- plot_data %>% 
  select(plotNumber,germplasmName,replicate,inter_crop,oat_yield,pea_yield,total_yield) %>% 
  left_join(ndvi_s2, by=join_by(plotNumber == plot_number)) %>% 
  mutate(cNDVI = rowSums(across(`NDVI_10-17-23_mean`:`NDVI_07-08-24_mean`)))  
  
cNDVI_plot_data

# A tibble: 350 × 21
# Rowwise: 
   plotNumber germplasmName replicate inter_crop oat_yield pea_yield total_yield
        <dbl> <chr>             <dbl> <chr>          <dbl>     <dbl>       <dbl>
 1          1 NF01401B              2 oat             244.        0         244.
 2         10 TX18OCS9125           2 oat             272.        0         272.
 3        100 NC21-6610             4 oat             282.        0         282.
 4        101 FLLA17069-54          4 oat             167.        0         167.
 5        102 FLLA17069-54          4 oat-pea         182.      328.        509.
 6        105 FLLA17069-53          4 oat-pea         196.      158.        355.
 7        106 FLLA17069-53          4 oat             200.        0         200.
 8        107 NO_OATS_PLAN…         4 pea               0       500.        500.
 9        108 NO_OATS_PLAN…         4 pea               0       443.        443.
10        109 NF12AS-122-4…         4 oat-pea         203.      170.        373.
# ℹ 340 more rows
# ℹ 14 more variables: subplot <dbl>, pg_id <chr>, prow <dbl>, pcol <dbl>,
#   grow <dbl>, gcol <dbl>, `NDVI_10-17-23_mean` <dbl>,
#   `NDVI_11-16-23_mean` <dbl>, `NDVI_04-01-24_mean` <dbl>,
#   `NDVI_04-20-24_mean` <dbl>, `NDVI_05-12-24_mean` <dbl>,
#   `NDVI_06-14-24_mean` <dbl>, `NDVI_07-08-24_mean` <dbl>, cNDVI <dbl>
…
