Randomization
…
Import a list of accessions that are to be used in
trial

Select the list and name accessions

Set blocks, and accessions per block

Randomize

Format for printing envelopes

1. Import a list of T3/oat accessions

# A tibble: 455 × 5
   Entry Name      Pedigree                                  `NY Seed` accession
   <dbl> <chr>     <chr>                                     <chr>     <chr>    
 1     1 BIG MAC   Coker 68-16/Coker 69-26//Coker 68-23/Cok… seed ava… BIG MAC  
 2     2 BOB       Nora/Florida 501                          seed ava… BOB      
 3     3 BROOKS    Carolee/Fulgrain/6/Fulgrain/5/CI 5106//H… seed ava… BROOKS   
 4     4 Caballo   RODGERS SIB // ARFOB30/C84-27             seed ava… Caballo  
 5     5 Cantara   FL03053-S06-15-B-S1 (LA989IBI-51-B-I1-I2… seed ava… Cantara  
 6     6 COKER 227 FL500//Woodgrain/CI7330/3/Moregrain/Milf… seed ava… COKER 227
 7     7 COKER 234 FL500//Woodgrain/CI7330/3/Moregrain/Milf… seed ava… COKER 234
 8     8 Coker 716 Coker 62-30 (unknown/unknown)/Beltsville… seed ava… Coker 716
 9     9 Corondo   NA                                        seed ava… Corondo  
10    10 FL0047-J9 Horizon 474/TX97C1168                     seed ava… FL0047-J9
# ℹ 445 more rows
…
nBlks <- 2   # set the block number

nAccessions <- nrow(accessions)  # how many accessions in the plan

nPlotsPerBlk <- nAccessions # set the number of plots per block

Create a dataframe with the accessions duplicated for each block

blocks <- dplyr::tibble( 
  accession=rep(accessions$accession, nBlks),
  block= rep(1:nBlks,  each = nPlotsPerBlk ) )

blocks

# A tibble: 910 × 2
   accession block
   <chr>     <int>
 1 BIG MAC       1
 2 BOB           1
 3 BROOKS        1
 4 Caballo       1
 5 Cantara       1
 6 COKER 227     1
 7 COKER 234     1
 8 Coker 716     1
 9 Corondo       1
10 FL0047-J9     1
# ℹ 900 more rows
…
floor(runif(1, 10000, 1000000))  # run to get a random number for set.seed

[1] 706768

set.seed(892015) 
randomization  <- blocks %>% 
  left_join(input_file, join_by(accession)) %>% ### add in metadata from input file
  mutate("random" = runif(1:nrow(blocks))) %>% 
  arrange(block,random) %>%   # order by random numbers
  mutate(plot = seq(1:nrow(blocks))) %>%  # add in sequential plot numbers
  relocate(block,plot,accession)

randomization

# A tibble: 910 × 8
   block  plot accession          Entry Name          Pedigree `NY Seed`  random
   <int> <int> <chr>              <dbl> <chr>         <chr>    <chr>       <dbl>
 1     1     1 TX20CAS1034          304 TX20CAS1034   TX14OCS… no seed … 9.58e-4
 2     1     2 TX20CAS1071          308 TX20CAS1071   TAMO411… no seed … 4.69e-3
 3     1     3 HORIZON 270           41 HORIZON 270   FL95MEO… seed ava… 5.98e-3
 4     1     4 NC12-3922            141 NC12-3922     Rodgers… seed ava… 9.18e-3
 5     1     5 FL1049-3              28 FL1049-3      FL03262… seed ava… 1.03e-2
 6     1     6 FLLA16083-25         347 FLLA16083-25  LA08084… seed ava… 1.19e-2
 7     1     7 LA10044-4            127 LA10044-4     LA97006… seed ava… 1.20e-2
 8     1     8 TX19CAS0002          348 TX19CAS0002   LA09030… seed ava… 1.44e-2
 9     1     9 TX14OCS5065          224 TX14OCS5065   05CS347… seed ava… 1.65e-2
10     1    10 LA06059SBSBSB-16-S    63 LA06059SBSBS… TAMO 40… seed ava… 2.00e-2
# ℹ 900 more rows

# write.csv(randomization,"output/SOAP_randomization.csv",row.names = FALSE)

5. Formatted output for printing labels

arranged by entry and save as a .csv for use on enevelope printer

randomization %>% 
  arrange(Entry) 

# A tibble: 910 × 8
   block  plot accession Entry Name    Pedigree                `NY Seed`  random
   <int> <int> <chr>     <dbl> <chr>   <chr>                   <chr>       <dbl>
 1     1   380 BIG MAC       1 BIG MAC Coker 68-16/Coker 69-2… seed ava… 0.829  
 2     2   867 BIG MAC       1 BIG MAC Coker 68-16/Coker 69-2… seed ava… 0.907  
 3     1   251 BOB           2 BOB     Nora/Florida 501        seed ava… 0.533  
 4     2   459 BOB           2 BOB     Nora/Florida 501        seed ava… 0.00628
 5     1   351 BROOKS        3 BROOKS  Carolee/Fulgrain/6/Ful… seed ava… 0.747  
 6     2   466 BROOKS        3 BROOKS  Carolee/Fulgrain/6/Ful… seed ava… 0.0177 
 7     1   326 Caballo       4 Caballo RODGERS SIB // ARFOB30… seed ava… 0.679  
 8     2   543 Caballo       4 Caballo RODGERS SIB // ARFOB30… seed ava… 0.223  
 9     1   117 Cantara       5 Cantara FL03053-S06-15-B-S1 (L… seed ava… 0.236  
10     2   510 Cantara       5 Cantara FL03053-S06-15-B-S1 (L… seed ava… 0.127  
# ℹ 900 more rows
…
