Randomization to T3 Trial
…
Save and import to T3/Oat

1. Import the Randomization

The essential data is ‘plotNo’, ‘block’, ‘accession’ and ‘intercrop’.
Name the dataframe randomization

randomization <- winterOatPea_2025_plot_HR <- read_csv("data/winterOatPea_2025_plot_HR.csv") %>% 
  select(plotNo,block,accession,intercrop,crop)

randomization

## # A tibble: 336 × 5
##    plotNo block  accession  intercrop crop 
##     <dbl> <chr>  <chr>      <chr>     <chr>
##  1      1 Block1 NC20-4526  intercrop Oat  
##  2      2 Block1 NC20-4526  monocrop  Oat  
##  3      3 Block1 NC21-6610  intercrop Oat  
##  4      4 Block1 NC21-6610  monocrop  Oat  
##  5      5 Block1 PI365619   intercrop Oat  
##  6      6 Block1 OZARK|POGI monocrop  Oat  
##  7      7 Block1 OZARK|POGI intercrop Oat  
##  8      8 Block1 Gerard 227 intercrop Oat  
##  9      9 Block1 Gerard 227 monocrop  Oat  
## 10     10 Block1 NC21-6492  intercrop Oat  
## # ℹ 326 more rows
…
phenotyping_trial

1.26

0.2772

2024-10-04

Plot level metadata

plot_level_headers <- c("plot_name","accession_name","plot_number","block_number",  "is_a_control","rep_number","range_number","row_number","col_number","seedlot_name","num_seed_per_plot","weight_gram_seed_per_plot","entry_number", "is_private")

randomization

## # A tibble: 336 × 5
##    plotNo block  accession  intercrop crop 
##     <dbl> <chr>  <chr>      <chr>     <chr>
##  1      1 Block1 NC20-4526  intercrop Oat  
##  2      2 Block1 NC20-4526  monocrop  Oat  
##  3      3 Block1 NC21-6610  intercrop Oat  
##  4      4 Block1 NC21-6610  monocrop  Oat  
##  5      5 Block1 PI365619   intercrop Oat  
##  6      6 Block1 OZARK|POGI monocrop  Oat  
##  7      7 Block1 OZARK|POGI intercrop Oat  
##  8      8 Block1 Gerard 227 intercrop Oat  
##  9      9 Block1 Gerard 227 monocrop  Oat  
## 10     10 Block1 NC21-6492  intercrop Oat  
## # ℹ 326 more rows
…
trial <- randomization %>% 

  # change the plot numbers from sequential to 3 digit with block and plots per block
  mutate(plot_number = (rep(seq(1:plots_per_block), times = number_of_blocks)) +   
           (rep(seq(1:number_of_blocks), each = plots_per_block)*100)) %>% 

  # change pea accessions to NO_OATS_PLANTED which is a valid t3 oat accession
  mutate(accession_name = if_else(crop == "Pea", "NO_OATS_PLANTED",accession)) %>% 

  # need to add in for each pea accession.  This will be used to create the pea management factor 
  mutate(Blaze = if_else(accession == "Blaze"|intercrop == "intercrop", "1",""))  

trial

## # A tibble: 336 × 8
##    plotNo block  accession  intercrop crop  plot_number accession_name Blaze
##     <dbl> <chr>  <chr>      <chr>     <chr>       <dbl> <chr>          <chr>
##  1      1 Block1 NC20-4526  intercrop Oat           101 NC20-4526      "1"  
##  2      2 Block1 NC20-4526  monocrop  Oat           102 NC20-4526      ""   
##  3      3 Block1 NC21-6610  intercrop Oat           103 NC21-6610      "1"  
##  4      4 Block1 NC21-6610  monocrop  Oat           104 NC21-6610      ""   
##  5      5 Block1 PI365619   intercrop Oat           105 PI365619       "1"  
##  6      6 Block1 OZARK|POGI monocrop  Oat           106 OZARK|POGI     ""   
##  7      7 Block1 OZARK|POGI intercrop Oat           107 OZARK|POGI     "1"  
##  8      8 Block1 Gerard 227 intercrop Oat           108 Gerard 227     "1"  
##  9      9 Block1 Gerard 227 monocrop  Oat           109 Gerard 227     ""   
## 10     10 Block1 NC21-6492  intercrop Oat           110 NC21-6492      "1"  
## # ℹ 326 more rows
…
